@startuml

left to right direction
'skinparam packageStyle rect

title <b>PUMA</b>\nCas d'utilisation

actor administrateur as admin
actor encodeur
actor visiteur
actor "coopérative" as coop

encodeur <|- admin
coop <.. encodeur
visiteur <|- encodeur

rectangle "PUMA LOCAL (windows)" {
  usecase "Login" as login
  usecase "voir les rapports" as voir
  usecase "encoder des data" as encoder  
  usecase "nouvelles données" as encodernew
  usecase "mise à jour de fiches existantes" as encoderupd
  usecase "synchronisation avec master" as synchro
  usecase "gérer les utilisateurs" as manageuser
  usecase "export des rapports" as export
  usecase "impression des formulaires" as exportfrm
  usecase "gestion des références" as manageref
  usecase "mettre à jour l'application" as upgrade
  usecase "faire le backup de la database" as backup
    
  admin -- (manageuser)
  admin -- (manageref)
  encodeur -- (encoder)
  encodeur -- (synchro)
  encodeur -- (upgrade)
  encodeur -- (backup)
  visiteur -- (voir)
  visiteur -- (login)
  (encoder) .> (exportfrm) : extends
  (encoder) .> (encoderupd) : extends
  (encoder) .> (encodernew) : extends
  (voir) .> (export) : extends
  (export) .> (excel) : extends 
}

rectangle "PUMA MASTER (linux)" {  
  usecase "centralisation des données" as synchro_master
  (synchro) -- (synchro_master)
}

note right of (login)
  Username
  Password
  Dossier (coopérative)
  Niveau utilisateur
end note

note right of (export)
  Utilisation de vues à tiroirs
end note

note right of (voir)
  Les rapports sont regroupés par thèmes.
  Chaque thème comporte plusieurs rapports.
end note

usecase challenges as "<b>Challenges</b>
--
- installeur
- synchronisation
- nettoyage et organisation des rapports
- évolution des formulaires
- customisation régionale
- gestion langues (table de traductions)
- gestion des encodings"

note left of (challenges)
  <b>Liste des formulaires</b>
 --
  Profil de la coopérative
  Profil du groupement
  Profil de l'exploitation
  F0 (suivi exploitation)
  F1 (suivi exploitation)
end note


@enduml

